Lab 06 - Text Mining
…
Question 1: What specialties do we have?

We can use count() from dplyr to figure out how many different categories do we have? Are these catagories related? overlapping? evenly distributed?{.underline}

mt_samples %>%
  count(medical_specialty, sort = TRUE)

# A tibble: 40 × 2
   medical_specialty                 n
   <chr>                         <int>
 1 Surgery                        1103
 2 Consult - History and Phy.      516
 3 Cardiovascular / Pulmonary      372
 4 Orthopedic                      355
 5 Radiology                       273
 6 General Medicine                259
 7 Gastroenterology                230
 8 Neurology                       223
 9 SOAP / Chart / Progress Notes   166
10 Obstetrics / Gynecology         160
# ℹ 30 more rows
…
These categories are not evenly distributed– the majority of the people are in surgery with a count of 1103 and widely ranges for other specialties from ~500-6 people in a specialty

Question 2

Tokenize the the words in the transcription column

Count the number of times each token appears

mt_samples %>%
  unnest_tokens(word, transcription) %>%
  count(word, sort = TRUE)

# A tibble: 23,647 × 2
   word         n
   <chr>    <int>
 1 the     149888
 2 and      82779
 3 was      71765
 4 of       59205
 5 to       50632
 6 a        42810
 7 with     35815
 8 in       32807
 9 is       26378
10 patient  22065
# ℹ 23,637 more rows
…
What do we see know that we have removed stop words? Does it give us a better idea of what the text is about?{.underline}

Once removing stop words and numbers, we can get a much bettwe idea about the text. From these words, we can see that it is healthcare/medical related.

Question 4

repeat question 2, but this time tokenize into bi-grams.{.underline}

mt_samples %>%
  unnest_ngrams(ngram, transcription, n = 2) %>%
  count(ngram, sort = TRUE)

# A tibble: 301,419 × 2
   ngram           n
   <chr>       <int>
 1 the patient 20307
 2 of the      19062
 3 in the      12790
 4 to the      12374
 5 was then     6956
 6 and the      6350
 7 patient was  6293
 8 the right    5509
 9 on the       5241
10 the left     4860
# ℹ 301,409 more rows
…
The most common bi-gram was “the patient” with over 20k mentions. There are many stop words within these results, which makes getting meaningful results from the graph, with the second most common bi-gram being “of the” and “in the”.

How does the result change if you look at tri-grams?{.underline}

mt_samples %>%
  unnest_ngrams(ngram, transcription, n = 3) %>%
  count(ngram, sort = TRUE)

# A tibble: 655,442 × 2
   ngram                  n
   <chr>              <int>
 1 the patient was     6104
 2 the patient is      3075
 3 as well as          2243
 4 there is no         1678
 5 the operating room  1532
 6 patient is a        1491
 7 prepped and draped  1490
 8 was used to         1480
 9 and draped in       1372
10 at this time        1333
# ℹ 655,432 more rows
…
The tri-grams show many less combinations than the bi-grams, but the top 20 give more insight than the bigrams. The top tri-gram was “the patient was”, and many of these combinations seem more meaningful/have more medical language in them which can help us understand the text easier.

Question 5

Using the results you got from questions 4. Pick a word and count the words that appears after and before it.{.underline}

mt_samples %>%
  unnest_ngrams(ngram, transcription, n=2) %>%
  separate(ngram, into=c("word1", "word2", sep=" ")) %>%
  select(word1, word2) %>%
  filter(word1 == "anesthesia") %>%
  count(word2, sort=TRUE) ##word after

# A tibble: 212 × 2
   word2          n
   <chr>      <int>
 1 general      781
 2 was          555
 3 the          324
 4 and          217
 5 local        133
 6 a             91
 7 with          86
 8 care          72
 9 spinal        65
10 department    55
# ℹ 202 more rows

mt_samples %>%
  unnest_ngrams(ngram, transcription, n=2) %>%
  separate(ngram, into=c("word1", "word2", sep=" ")) %>%
  select(word1, word2) %>%
  filter(word2 == "anesthesia") %>%
  count(word1, sort=TRUE) ##word before

# A tibble: 446 × 2
   word1            n
   <chr>        <int>
 1 general        480
 2 endotracheal   370
 3 of             319
 4 local          117
 5 the            113
 6 and             78
 7 by              78
 8 under           77
 9 from            67
10 monitored       54
# ℹ 436 more rows
…
Question 6

Which words are most used in each of the specialties. you can use group_by() and top_n() from dplyr to have the calculations be done within each specialty. Remember to remove stopwords. How about the most 5 used words?{.underline}

mt_samples %>%
  unnest_tokens(word, transcription) %>%
  group_by(medical_specialty) %>%
  anti_join(stop_words, by = c("word")) %>%
  filter(!stringr::str_detect(word, "^[0-9]+$")) %>%
  count(word, sort = TRUE) %>%
  top_n(5, n) %>%
  arrange(medical_specialty, desc(n))

# A tibble: 210 × 3
# Groups:   medical_specialty [40]
   medical_specialty    word          n
   <chr>                <chr>     <int>
 1 Allergy / Immunology history      38
 2 Allergy / Immunology noted        23
 3 Allergy / Immunology patient      22
 4 Allergy / Immunology allergies    21
 5 Allergy / Immunology nasal        13
 6 Allergy / Immunology past         13
 7 Autopsy              left         83
 8 Autopsy              inch         59
 9 Autopsy              neck         55
10 Autopsy              anterior     47
# ℹ 200 more rows
